{
    "name": "HouseWorker",
    "alias": "houseworker",
    "description": "",
    "keywords": [],
    "active": 1,
    "order": 0,
    "providers": [
        "Modules\\HouseWorker\\Providers\\HouseWorkerServiceProvider"
    ],
    "aliases": {},
    "files": [],
    "requires": []
}
